Legionellen 2025 – Datenaufbereitung, Adressstandardisierung und Aggregation
…
options(tibble.width = Inf)

LIMS2 %>%
  group_by(addr_final) %>%
  summarise(
    n_street_variants = n_distinct(Straße...9),
    p_street_v = paste(unique(Straße...9), collapse = " / "),
    .groups = "drop"
  )  %>%
  arrange(desc(n_street_variants))

# A tibble: 115 × 3
   addr_final                                     n_street_variants
   <chr>                                                      <int>
 1 ernestus platz 1, 56626 andernach                              3
 2 avallon strasse 1, 56812 cochem                                2
 3 avallon strasse 32, 56812 cochem                               2
 4 bodelschwingh strasse 27, 76829 landau                         2
 5 buchen strasse 6, 56588 waldbreitbach                          2
 6 hanns martin schleyer strasse 30, 76744 woerth                 2
 7 himmeroder strasse 88, 54516 wittlich                          2
 8 koblenzer strasse 115, 56073 koblenz                           2
 9 luitpold strasse 14, 76870 kandel                              2
10 paul egell strasse 33, 67346 speyer                            2
   p_street_v                                                  
   <chr>                                                       
 1 Ernestus-Platz 1 / Ernestusplatz 1 / Ernestus Platz 1       
 2 Avallonstraße 1 / Avallonstr. 1                             
 3 Avallonstr. 32 / Avallonstraße 32                           
 4 Bodelschwinghstraße 27 / Bodelschwinghstr. 27               
 5 Buchenstraße 6 / Buchenstr. 6                               
 6 Hanns-Martin-Schleyer-Str.30 / Hanns-Martin-Schleyer-Str. 30
 7 Himmeroder Straße 88 / Himmeroderstr. 88                    
 8 Koblenzer Str. 115 - 155 / Koblenzer Straße 115-155         
 9 Luitpoldstraße 14 / Luitpoldstr. 14                         
10 Paul-Egell-Str. 33 / Paul-Egell-Straße 33                   
# ℹ 105 more rows
…
